Chapter 6 Polygenic scores (PGS) | bigsnpr & bigstatsr
…
Let us now match these with the internal data we have:

(info_snp <- tibble::as_tibble(snp_match(sumstats, map)))

#> 9,455,778 variants to be matched.

#> 62,531 ambiguous SNPs have been removed.

#> 340,563 variants have been matched; 170,352 were flipped and 309,568 were reversed.

#> # A tibble: 340,563 x 9
#>      chr    pos a0    a1        beta beta_se  n_eff `_NUM_ID_.ss`
#>    <int>  <int> <chr> <chr>    <dbl>   <dbl>  <dbl>         <int>
#>  1     1 7.53e5 T     C      5.24e-3  0.0158 1.63e5             2
#>  2     1 7.86e5 G     A     -9.81e-4  0.0163 1.63e5            54
#>  3     1 7.99e5 G     A      1.56e-2  0.0143 1.63e5            80
#>  4     1 9.50e5 G     A     -4.01e-2  0.0134 1.63e5           126
#>  5     1 1.02e6 G     A     -1.50e-2  0.0101 1.63e5           246
#>  6     1 1.04e6 T     C     -8.94e-3  0.0130 1.63e5           309
#>  7     1 1.13e6 C     A      7.63e-3  0.0147 1.63e5           584
#>  8     1 1.13e6 A     C      1.43e-3  0.0164 1.63e5           594
#>  9     1 1.16e6 C     T     -2.21e-2  0.0208 1.63e5           719
#> 10     1 1.17e6 C     T      2.78e-2  0.0207 1.63e5           776
#> # ... with 340,553 more rows, and 1 more variable: `_NUM_ID_` <int>
…
